[
    {
        "name" : "Yuval",
        "age" : "21",
        "idNumber" : "1",
        "address" : "odem 129 shaar efreim",
        "lessons" : "0"
    },

    {
        "name" : "Itay",
        "age" : "20",
        "idNumber" : "2",
        "address" : "shvet shimon 5",
        "lessons" : "2"
    }
]